{
	"events": [
		{
			"animation": "[Default]",
			"animation_length": 0.5,
			"character": "character-1644608739.json",
			"event_id": "dialogic_002",
			"mirror_portrait": false,
			"portrait": "Default",
			"position": {
				"0": true,
				"1": false,
				"2": false,
				"3": false,
				"4": false
			},
			"type": 0,
			"z_index": 0
		},
		{
			"character": "character-1644608739.json",
			"event_id": "dialogic_001",
			"portrait": "",
			"text": "asdasdasd"
		},
		{
			"event_id": "dialogic_022",
			"transition_duration": 0.5
		}
	],
	"metadata": {
		"dialogic-version": "1.4.5",
		"file": "timeline-1639148780.json",
		"name": "valise1_end"
	}
}
