{
	"events": [
		{
			"animation": "[Default]",
			"animation_length": 0.5,
			"character": "character-1673038925.json",
			"event_id": "dialogic_002",
			"mirror_portrait": false,
			"portrait": "Default",
			"position": {
				"0": true,
				"1": false,
				"2": false,
				"3": false,
				"4": false
			},
			"type": 0,
			"z_index": 0
		},
		{
			"audio": "play",
			"audio_bus": "Master",
			"event_id": "dialogic_030",
			"event_name": "AudioEvent",
			"file": "res://assets/audios/air/minijogos/tente-identificar.mp3",
			"volume": 0
		},
		{
			"character": "character-1673038925.json",
			"event_id": "dialogic_001",
			"portrait": "",
			"text": "TENTE IDENTIFICAR OS PÁSSAROS PELO SEU CANTO!"
		},
		{
			"audio": "play",
			"audio_bus": "Master",
			"event_id": "dialogic_030",
			"event_name": "AudioEvent",
			"file": "res://assets/sfx/fail.wav",
			"volume": 0
		},
		{
			"character": "character-1673038925.json",
			"event_id": "dialogic_001",
			"portrait": "",
			"text": "CLIQUE NAS NOTAS MUSICAIS E DEPOIS NOS DESENHOS DOS PÁSSAROS."
		},
		{
			"audio": "play",
			"audio_bus": "Master",
			"event_id": "dialogic_030",
			"event_name": "AudioEvent",
			"file": "",
			"volume": 0
		},
		{
			"event_id": "dialogic_022",
			"transition_duration": 0.5
		}
	],
	"metadata": {
		"dialogic-version": "1.4.5",
		"file": "timeline-1665425440.json",
		"name": "memory_game1"
	}
}
