{
	"events": [
		{
			"event_id": "dialogic_023",
			"hide_dialogbox": true,
			"wait_seconds": 1
		},
		{
			"animation": "[Default]",
			"animation_length": 0.5,
			"character": "character-1664830101.json",
			"event_id": "dialogic_002",
			"mirror_portrait": false,
			"portrait": "Default",
			"position": {
				"0": true,
				"1": false,
				"2": false,
				"3": false,
				"4": false
			},
			"type": 0,
			"z_index": 0
		},
		{
			"audio": "play",
			"audio_bus": "Master",
			"event_id": "dialogic_030",
			"event_name": "AudioEvent",
			"file": "res://assets/audios/water/instructions/qual-palavra-pacoca.mp3",
			"volume": 0
		},
		{
			"character": "character-1664830101.json",
			"event_id": "dialogic_001",
			"portrait": "",
			"text": "QUAL É A PALAVRA ESCONDIDA EM PAÇOCA?"
		},
		{
			"audio": "play",
			"audio_bus": "Master",
			"event_id": "dialogic_030",
			"event_name": "AudioEvent",
			"file": "",
			"volume": 0
		},
		{
			"event_id": "dialogic_022",
			"transition_duration": 0.5
		}
	],
	"metadata": {
		"dialogic-version": "1.4.5",
		"file": "timeline-1649772851.json",
		"name": "valise1_tutorial1"
	}
}
