[gd_resource type="Resource" load_steps=6 format=2]

[ext_resource path="res://elements/earth/acrofony/levels/AcrofonyLevel.gd" type="Script" id=1]
[ext_resource path="res://assets/textures/banana.png" type="Texture" id=2]
[ext_resource path="res://assets/audios/earth/acrofony/ne.mp3" type="AudioStream" id=3]
[ext_resource path="res://assets/audios/earth/acrofony/ba.mp3" type="AudioStream" id=4]
[ext_resource path="res://assets/audios/earth/acrofony/na.mp3" type="AudioStream" id=5]

[resource]
script = ExtResource( 1 )
level_num = 24
texture = ExtResource( 2 )
question = "Banana"
syllables = PoolStringArray( "BA", "NA", "NE" )
syllable_audios = [ ExtResource( 4 ), ExtResource( 5 ), ExtResource( 3 ) ]
