[gd_resource type="Resource" load_steps=6 format=2]

[ext_resource path="res://elements/earth/acrofony/levels/AcrofonyLevel.gd" type="Script" id=1]
[ext_resource path="res://assets/textures/mesa.png" type="Texture" id=2]
[ext_resource path="res://assets/audios/earth/acrofony/me.mp3" type="AudioStream" id=3]
[ext_resource path="res://assets/audios/earth/acrofony/ma.mp3" type="AudioStream" id=4]
[ext_resource path="res://assets/audios/earth/acrofony/sa.mp3" type="AudioStream" id=5]

[resource]
script = ExtResource( 1 )
level_num = 12
texture = ExtResource( 2 )
question = "Mesa"
syllables = PoolStringArray( "ME", "MA", "SA" )
syllable_audios = [ ExtResource( 3 ), ExtResource( 4 ), ExtResource( 5 ) ]
