[gd_resource type="Resource" load_steps=7 format=2]

[ext_resource path="res://elements/earth/valise1/levels/Valise1Level.gd" type="Script" id=1]
[ext_resource path="res://assets/textures/mesa.png" type="Texture" id=2]
[ext_resource path="res://assets/textures/cha.png" type="Texture" id=3]
[ext_resource path="res://assets/textures/leque.png" type="Texture" id=4]
[ext_resource path="res://assets/textures/leite.png" type="Texture" id=5]
[ext_resource path="res://assets/textures/chapeu.png" type="Texture" id=6]

[resource]
script = ExtResource( 1 )
level_num = 4
question_texture = ExtResource( 6 )
question_word = "MOLEQUE"
option_textures = [ ExtResource( 3 ), ExtResource( 4 ), ExtResource( 2 ), ExtResource( 5 ) ]
option_words = PoolStringArray( "CHÁ", "LEQUE", "MESA", "LEITE" )
