[gd_scene load_steps=6 format=2]

[ext_resource path="res://elements/air/rebus4/Rebus4OptionCard.gd" type="Script" id=1]
[ext_resource path="res://assets/fonts/Lato-Regular.ttf" type="DynamicFontData" id=2]

[sub_resource type="RectangleShape2D" id=1]
extents = Vector2( 150, 200 )

[sub_resource type="DynamicFont" id=4]
size = 50
font_data = ExtResource( 2 )

[sub_resource type="Theme" id=5]
default_font = SubResource( 4 )

[node name="Rebus4OptionCard" type="Node2D"]
script = ExtResource( 1 )
sprite = NodePath("Sprite")
area = NodePath("Area2D")
tween = NodePath("Tween")
label = NodePath("Label")

[node name="Sprite" type="Sprite" parent="."]
position = Vector2( 0, -75 )

[node name="Area2D" type="Area2D" parent="."]

[node name="CollisionShape2D" type="CollisionShape2D" parent="Area2D"]
shape = SubResource( 1 )

[node name="Tween" type="Tween" parent="."]

[node name="Label" type="Label" parent="."]
anchor_left = 0.5
anchor_top = 0.5
anchor_right = 0.5
anchor_bottom = 0.5
margin_left = -672.5
margin_top = -35.0
margin_right = 672.5
margin_bottom = 127.0
theme = SubResource( 5 )
text = "AAAAAaaaaaaaaaaaaaaaaaaaaaaaaaaaaaaaaaaaaaaaaaaaaaaa"
align = 1
valign = 2
__meta__ = {
"_edit_use_anchors_": false
}
