[gd_resource type="Resource" load_steps=10 format=2]

[ext_resource path="res://assets/textures/casa.png" type="Texture" id=1]
[ext_resource path="res://assets/textures/janela.png" type="Texture" id=2]
[ext_resource path="res://assets/textures/jabuti.png" type="Texture" id=3]
[ext_resource path="res://assets/textures/chaleira.png" type="Texture" id=4]
[ext_resource path="res://assets/textures/bala.png" type="Texture" id=5]
[ext_resource path="res://elements/earth/rebus1/levels/Rebus1Level.gd" type="Script" id=6]
[ext_resource path="res://assets/textures/tigre.png" type="Texture" id=7]
[ext_resource path="res://assets/textures/jabuticaba.png" type="Texture" id=8]
[ext_resource path="res://assets/textures/hipopotamo.png" type="Texture" id=9]

[resource]
script = ExtResource( 6 )
level_num = 15
question_textures = [ ExtResource( 2 ), ExtResource( 4 ), ExtResource( 7 ), ExtResource( 1 ), ExtResource( 5 ) ]
question_words = PoolStringArray( "Janela", "Bule", "Tigre", "Casa", "Bala" )
question_words_parts = [ PoolStringArray( "JA", "NELA" ), PoolStringArray( "BU", "LE" ), PoolStringArray( "TI", "GRE" ), PoolStringArray( "CA", "SA" ), PoolStringArray( "BA", "LA" ) ]
option_textures = [ ExtResource( 8 ), ExtResource( 9 ), ExtResource( 3 ) ]
option_words = PoolStringArray( "Jabuticaba", "Hipopótamo", "Jabuti" )
