[gd_resource type="Resource" load_steps=9 format=2]

[ext_resource path="res://assets/textures/xicara.png" type="Texture" id=1]
[ext_resource path="res://assets/textures/banana.png" type="Texture" id=2]
[ext_resource path="res://assets/textures/cadeira.png" type="Texture" id=3]
[ext_resource path="res://assets/textures/abacate.png" type="Texture" id=4]
[ext_resource path="res://assets/textures/aviao.png" type="Texture" id=5]
[ext_resource path="res://elements/earth/rebus1/levels/Rebus1Level.gd" type="Script" id=6]
[ext_resource path="res://assets/textures/salada.png" type="Texture" id=7]
[ext_resource path="res://assets/textures/abacaxi.png" type="Texture" id=8]

[resource]
script = ExtResource( 6 )
level_num = 10
question_textures = [ ExtResource( 5 ), ExtResource( 2 ), ExtResource( 3 ), ExtResource( 1 ) ]
question_words = PoolStringArray( "Avião", "Banana", "Cadeira", "Xícara" )
question_words_parts = [ PoolStringArray( "A", "VIÃO" ), PoolStringArray( "BA", "NANA" ), PoolStringArray( "CA", "DEIRA" ), PoolStringArray( "XÍ", "CARA" ) ]
option_textures = [ ExtResource( 8 ), ExtResource( 4 ), ExtResource( 7 ) ]
option_words = PoolStringArray( "Abacaxi", "Abacate", "Salada" )
