[gd_scene load_steps=3 format=2]

[ext_resource path="res://elements/air/puzzle/PuzzleLetterDock.gd" type="Script" id=1]
[ext_resource path="res://utils/draggable/Dock.tscn" type="PackedScene" id=3]

[node name="PuzzleLetterDock" type="Node2D"]
script = ExtResource( 1 )
dock = NodePath("Dock")

[node name="Dock" parent="." instance=ExtResource( 3 )]
size = Vector2( 200, 200 )
