[gd_scene load_steps=8 format=2]

[ext_resource path="res://elements/earth/valise2/Valise2OptionCard.gd" type="Script" id=1]
[ext_resource path="res://assets/fonts/Lato-Regular.ttf" type="DynamicFontData" id=2]
[ext_resource path="res://assets/textures/boca_icone.png" type="Texture" id=3]
[ext_resource path="res://utils/draggable/Draggable.tscn" type="PackedScene" id=4]

[sub_resource type="RectangleShape2D" id=5]
extents = Vector2( 125, 100 )

[sub_resource type="DynamicFont" id=4]
size = 50
font_data = ExtResource( 2 )

[sub_resource type="Theme" id=6]
default_font = SubResource( 4 )

[node name="Valise2OptionCard" type="Node2D"]
script = ExtResource( 1 )
area = NodePath("Area2D")
scale_tween = NodePath("ScaleTween")
position_tween = NodePath("PositionTween")
draggable = NodePath("Draggable")
audio_stream_player = NodePath("AudioStreamPlayer")

[node name="Area2D" type="Area2D" parent="."]

[node name="CollisionShape2D" type="CollisionShape2D" parent="Area2D"]
shape = SubResource( 5 )

[node name="ScaleTween" type="Tween" parent="."]

[node name="PositionTween" type="Tween" parent="."]

[node name="Label" type="Label" parent="."]
visible = false
margin_left = -142.0
margin_top = -81.0
margin_right = 142.0
margin_bottom = -20.0
theme = SubResource( 6 )
text = "AA"
align = 1
valign = 1
__meta__ = {
"_edit_use_anchors_": false
}

[node name="VBoxContainer" type="VBoxContainer" parent="."]
anchor_left = 0.5
anchor_top = 0.5
anchor_right = 0.5
anchor_bottom = 0.5
margin_left = -142.0
margin_top = -84.0
margin_right = 142.0
margin_bottom = 84.0
mouse_filter = 2
alignment = 2
__meta__ = {
"_edit_use_anchors_": false
}

[node name="TextureRect" type="TextureRect" parent="VBoxContainer"]
margin_right = 284.0
margin_bottom = 168.0
rect_min_size = Vector2( 100, 100 )
mouse_filter = 2
size_flags_horizontal = 3
size_flags_vertical = 3
texture = ExtResource( 3 )
expand = true
stretch_mode = 6

[node name="Draggable" parent="." instance=ExtResource( 4 )]

[node name="AudioStreamPlayer" type="AudioStreamPlayer" parent="."]
