[gd_resource type="Resource" load_steps=6 format=2]

[ext_resource path="res://elements/earth/valise2/levels/Valise2Level.gd" type="Script" id=1]
[ext_resource path="res://assets/audios/water/words/barco.mp3" type="AudioStream" id=2]
[ext_resource path="res://assets/audios/water/words/mar.mp3" type="AudioStream" id=3]
[ext_resource path="res://assets/audios/water/words/carro.mp3" type="AudioStream" id=4]
[ext_resource path="res://assets/audios/water/words/bar.mp3" type="AudioStream" id=5]

[resource]
script = ExtResource( 1 )
level_num = 1
question_word = "BARCO"
question_audio = ExtResource( 2 )
num_answers = 1
option_words = PoolStringArray( "BAR", "MAR", "CARRO" )
option_audios = [ ExtResource( 5 ), ExtResource( 3 ), ExtResource( 4 ) ]
hint = "LUGAR ONDE SE COMPRA COMIDA E BEBIDA"
