[gd_resource type="Resource" load_steps=6 format=2]

[ext_resource path="res://elements/earth/valise2/levels/Valise2Level.gd" type="Script" id=1]
[ext_resource path="res://assets/audios/water/words/bananada.mp3" type="AudioStream" id=2]
[ext_resource path="res://assets/audios/water/words/fada.mp3" type="AudioStream" id=3]
[ext_resource path="res://assets/audios/water/words/banana.mp3" type="AudioStream" id=4]
[ext_resource path="res://assets/audios/water/words/cana.mp3" type="AudioStream" id=5]

[resource]
script = ExtResource( 1 )
level_num = 6
question_word = "BANANADA"
question_audio = ExtResource( 2 )
num_answers = 1
option_words = PoolStringArray( "BANANA", "CANA", "FADA" )
option_audios = [ ExtResource( 4 ), ExtResource( 5 ), ExtResource( 3 ) ]
hint = "É O NOME DE UMA FRUTA"
