[gd_resource type="Resource" load_steps=3 format=2]

[ext_resource path="res://elements/air/quiz/levels/QuizLevel.gd" type="Script" id=1]
[ext_resource path="res://assets/audios/air/instrumentos/triangulo.wav" type="AudioStream" id=2]

[resource]
script = ExtResource( 1 )
level_num = 5
question_audio = ExtResource( 2 )
option_words = PoolStringArray( "TRIÂNGULO", "UKULELÊ", "RECO-RECO" )
