[gd_scene load_steps=3 format=2]

[ext_resource path="res://resources/fonts/Lato20.tres" type="DynamicFont" id=1]
[ext_resource path="res://utils/instruction_background/InstructionBackground.tscn" type="PackedScene" id=2]

[node name="CanvasLayer" type="CanvasLayer"]
visible = false

[node name="MarginContainer" type="MarginContainer" parent="."]
anchor_left = 1.0
anchor_top = 1.0
anchor_right = 1.0
anchor_bottom = 1.0
margin_left = -222.0
margin_top = -49.0
grow_horizontal = 0
custom_constants/margin_right = 16
custom_constants/margin_top = 12
custom_constants/margin_left = 12
custom_constants/margin_bottom = 12

[node name="Label" type="Label" parent="MarginContainer"]
margin_left = 12.0
margin_top = 12.0
margin_right = 206.0
margin_bottom = 37.0
grow_horizontal = 2
custom_fonts/font = ExtResource( 1 )
text = "Versão 0.2.23.01.11.1"

[node name="InstructionBackground" parent="MarginContainer/Label" instance=ExtResource( 2 )]
parent = NodePath("..")
