[gd_resource type="Resource" load_steps=2 format=2]

[ext_resource path="res://utils/button_animation/ButtonAnimationData.gd" type="Script" id=1]

[resource]
script = ExtResource( 1 )
background_color = Color( 0.0901961, 0.286275, 0.341176, 1 )
button_normal_background_color = Color( 0.0901961, 0.286275, 0.341176, 1 )
button_pressed_background_color = Color( 0.0624, 0.20152, 0.24, 1 )
light_shadow_color = Color( 0.1274, 0.411437, 0.49, 1 )
dark_shadow_color = Color( 0.0312, 0.10076, 0.12, 1 )
normal_corner_radius = 10
hover_corner_radius = 10
background_shadow_size = 20
button_shadow_size = 4
shadow_offset = 3
background_expand_margin = 20
content_margin = 0
transition_duration = 0.25
