[gd_resource type="Resource" load_steps=2 format=2]

[ext_resource path="res://utils/button_animation/ButtonAnimationData.gd" type="Script" id=1]

[resource]
script = ExtResource( 1 )
background_color = Color( 0.156863, 0.156863, 0.156863, 1 )
button_normal_background_color = Color( 0.156863, 0.156863, 0.156863, 1 )
button_pressed_background_color = Color( 0.117647, 0.117647, 0.117647, 1 )
light_shadow_color = Color( 0.235294, 0.235294, 0.235294, 1 )
dark_shadow_color = Color( 0.0392157, 0.0392157, 0.0392157, 1 )
normal_corner_radius = 10
hover_corner_radius = 10
background_shadow_size = 10
button_shadow_size = 4
shadow_offset = 3
background_expand_margin = 10
content_margin = 0
transition_duration = 0.25
