[gd_resource type="Resource" load_steps=6 format=2]

[ext_resource path="res://elements/earth/valise2/levels/Valise2Level.gd" type="Script" id=1]
[ext_resource path="res://assets/audios/fire/valise2/cafe.mp3" type="AudioStream" id=2]
[ext_resource path="res://assets/audios/fire/valise2/fe.mp3" type="AudioStream" id=3]
[ext_resource path="res://assets/audios/water/words/pa.mp3" type="AudioStream" id=4]
[ext_resource path="res://assets/audios/fire/valise2/paje.mp3" type="AudioStream" id=5]

[resource]
script = ExtResource( 1 )
level_num = 6
question_word = "pajé"
question_audio = ExtResource( 5 )
num_answers = 1
option_words = PoolStringArray( "pá", "café", "fé" )
option_audios = [ ExtResource( 4 ), ExtResource( 2 ), ExtResource( 3 ) ]
hint = "é utilizada para cavar"
