[gd_resource type="Resource" load_steps=2 format=2]

[ext_resource path="res://elements/earth/valise3/levels/Valise3Level.gd" type="Script" id=1]

[resource]
script = ExtResource( 1 )
level_num = 5
question_word = "Abacate"
num_answers = 1
option_words = PoolStringArray( "Aba", "Bala", "Telefone", "Casa" )
