[gd_scene load_steps=5 format=2]

[ext_resource path="res://elements/earth/valise1/Valise1QuestionCard.gd" type="Script" id=1]
[ext_resource path="res://assets/fonts/Lato-Regular.ttf" type="DynamicFontData" id=2]

[sub_resource type="DynamicFont" id=2]
size = 40
outline_size = 4
outline_color = Color( 0, 0, 0, 1 )
font_data = ExtResource( 2 )

[sub_resource type="Theme" id=1]
default_font = SubResource( 2 )

[node name="Valise1QuestionCard" type="Node2D"]
script = ExtResource( 1 )
sprite = NodePath("Sprite")
debug_question_label = NodePath("DebugQuestionLabel")

[node name="Sprite" type="Sprite" parent="."]

[node name="DebugQuestionLabel" type="Label" parent="."]
visible = false
anchor_left = 0.5
anchor_top = 0.5
anchor_right = 0.5
anchor_bottom = 0.5
margin_left = -364.5
margin_top = -24.5
margin_right = 364.5
margin_bottom = 24.5
theme = SubResource( 1 )
text = "AAAAAAAAAAAAAAAAAAAAAAAAAAA"
align = 1
valign = 1
__meta__ = {
"_edit_use_anchors_": false
}
